{
  "version": 2,
  "cli": {
    "defaultCollection": "@nrwl/angular"
  },
  "generators": {
    "@nrwl/angular:application": {
      "style": "scss",
      "linter": "eslint",
      "unitTestRunner": "jest",
      "e2eTestRunner": "cypress"
    },
    "@nrwl/angular:library": {
      "style": "scss",
      "linter": "eslint",
      "unitTestRunner": "jest"
    },
    "@nrwl/angular:component": {
      "style": "scss"
    }
  },
  "projects": {
    "my-dir-my-app": {
      "projectType": "application",
      "root": "apps/my-dir/my-app",
      "sourceRoot": "apps/my-dir/my-app/src",
      "prefix": "workspace",
      "targets": {
        "build": {
          "executor": "@angular-devkit/build-angular:browser",
          "options": {
            "outputPath": "dist/apps/my-dir/my-app",
            "index": "apps/my-dir/my-app/src/index.html",
            "main": "apps/my-dir/my-app/src/main.ts",
            "polyfills": "apps/my-dir/my-app/src/polyfills.ts",
            "tsConfig": "apps/my-dir/my-app/tsconfig.app.json",
            "inlineStyleLanguage": "scss",
            "assets": [
              "apps/my-dir/my-app/src/favicon.ico",
              "apps/my-dir/my-app/src/assets"
            ],
            "styles": [
              "apps/my-dir/my-app/src/styles.scss"
            ],
            "scripts": []
          },
          "configurations": {
            "production": {
              "budgets": [
                {
                  "type": "initial",
                  "maximumWarning": "500kb",
                  "maximumError": "1mb"
                },
                {
                  "type": "anyComponentStyle",
                  "maximumWarning": "2kb",
                  "maximumError": "4kb"
                }
              ],
              "fileReplacements": [
                {
                  "replace": "apps/my-dir/my-app/src/environments/environment.ts",
                  "with": "apps/my-dir/my-app/src/environments/environment.prod.ts"
                }
              ],
              "outputHashing": "all"
            },
            "development": {
              "buildOptimizer": false,
              "optimization": false,
              "vendorChunk": true,
              "extractLicenses": false,
              "sourceMap": true,
              "namedChunks": true
            }
          },
          "defaultConfiguration": "production"
        },
        "serve": {
          "executor": "@angular-devkit/build-angular:dev-server",
          "configurations": {
            "production": {
              "browserTarget": "my-dir-my-app:build:production"
            },
            "development": {
              "browserTarget": "my-dir-my-app:build:development"
            }
          },
          "defaultConfiguration": "development"
        },
        "extract-i18n": {
          "executor": "@angular-devkit/build-angular:extract-i18n",
          "options": {
            "browserTarget": "my-dir-my-app:build"
          }
        },
        "lint": {
          "executor": "@nrwl/linter:eslint",
          "options": {
            "lintFilePatterns": [
              "apps/my-dir/my-app/src/**/*.ts",
              "apps/my-dir/my-app/src/**/*.html"
            ]
          }
        },
        "test": {
          "executor": "@nrwl/jest:jest",
          "outputs": [
            "coverage/apps/my-dir/my-app"
          ],
          "options": {
            "jestConfig": "apps/my-dir/my-app/jest.config.js",
            "passWithNoTests": true
          }
        }
      }
    },
    "my-dir-my-app-e2e": {
      "root": "apps/my-dir/my-app-e2e",
      "sourceRoot": "apps/my-dir/my-app-e2e/src",
      "projectType": "application",
      "targets": {
        "e2e": {
          "executor": "@nrwl/cypress:cypress",
          "options": {
            "cypressConfig": "apps/my-dir/my-app-e2e/cypress.json",
            "tsConfig": "apps/my-dir/my-app-e2e/tsconfig.e2e.json",
            "devServerTarget": "my-dir-my-app:serve:development"
          },
          "configurations": {
            "production": {
              "devServerTarget": "my-dir-my-app:serve:production"
            }
          }
        },
        "lint": {
          "executor": "@nrwl/linter:eslint",
          "options": {
            "lintFilePatterns": [
              "apps/my-dir/my-app-e2e/**/*.{js,ts}"
            ]
          }
        }
      }
    }
  },
  "defaultProject": "my-dir-my-app"
}